<svg xmlns="http://www.w3.org/2000/svg" xmlns:xlink="http://www.w3.org/1999/xlink" preserveAspectRatio="xMidYMid" width="77" height="33" viewBox="0 0 77 33">
  <defs>
    <style>

      .cls-2 {
        fill: #ffffff;
        opacity: 0.8;
      }
    </style>
  </defs>
  <path d="M20.283,16.711 C20.283,7.803 27.368,0.596 36.148,0.596 C44.895,0.596 51.946,7.803 51.946,16.711 C51.946,25.620 44.895,32.826 36.148,32.826 C27.368,32.826 20.283,25.652 20.283,16.711 C20.283,16.711 20.283,16.711 20.283,16.711 ZM-0.005,33.326 C-0.005,33.326 -0.005,-0.004 -0.005,-0.004 C-0.005,-0.004 19.918,-0.004 19.918,-0.004 C19.918,-0.004 20.516,9.138 20.516,9.138 C20.516,9.138 9.374,9.138 9.374,9.138 C9.374,9.138 9.374,13.508 9.374,13.508 C9.374,13.508 18.487,13.508 18.487,13.508 C18.487,13.508 18.487,22.517 18.487,22.517 C18.487,22.517 9.374,22.517 9.374,22.517 C9.374,22.517 9.374,33.326 9.374,33.326 C9.374,33.326 -0.005,33.326 -0.005,33.326 C-0.005,33.326 -0.005,33.326 -0.005,33.326 ZM77.190,33.226 C77.190,33.226 67.213,16.011 67.213,16.011 C67.213,16.011 76.325,0.129 76.325,0.129 C76.325,0.129 66.248,0.129 66.248,0.129 C66.248,0.129 62.190,7.202 62.190,7.202 C62.190,7.202 58.066,0.129 58.066,0.129 C58.066,0.129 47.789,0.129 47.789,0.129 C47.789,0.129 57.002,16.111 57.002,16.111 C57.002,16.111 47.190,33.226 47.190,33.226 C47.190,33.226 57.268,33.226 57.268,33.226 C57.268,33.226 62.024,24.952 62.024,24.952 C62.024,24.952 66.847,33.226 66.847,33.226 C66.847,33.226 77.190,33.226 77.190,33.226 C77.190,33.226 77.190,33.226 77.190,33.226 ZM38.875,23.318 C38.875,23.318 38.875,10.105 38.875,10.105 C38.875,8.537 37.711,7.202 36.148,7.202 C34.718,7.202 33.487,8.537 33.487,10.105 C33.487,10.105 33.487,23.318 33.487,23.318 C33.487,24.785 34.718,26.020 36.148,26.020 C37.711,26.020 38.875,24.952 38.875,23.318 C38.875,23.318 38.875,23.318 38.875,23.318 Z" id="path-1" class="cls-2" fill-rule="evenodd"/>
</svg>
