<svg width="19" height="19" version="1.1" id="Capa_1" xmlns="http://www.w3.org/2000/svg" xmlns:xlink="http://www.w3.org/1999/xlink" x="0px" y="0px"
	 viewBox="0 0 23.301 23.302" style="enable-background:new 0 0 23.301 23.302;"
	 xml:space="preserve">
<g>
	<g>
		<path fill="#699826" d="M19.575,8.353C19.375,3.703,15.911,0,11.652,0c-4.26,0-7.725,3.703-7.924,8.352c-0.623,0.166-1.083,0.727-1.083,1.4v3.619
			c0,0.803,0.65,1.454,1.455,1.454c0.805,0,1.456-0.65,1.456-1.454h0.001v-0.28c0.688,3.203,2.355,7.351,6.095,7.351
			c3.738,0,5.406-4.145,6.095-7.348v0.277c0,0.641,0.418,1.178,0.992,1.372c-0.041,0.733-0.438,4.606-4.223,6.223
			c-0.237-0.147-0.525-0.196-0.811-0.094l-1.665,0.618c-0.484,0.179-0.731,0.718-0.553,1.199c0.181,0.485,0.717,0.732,1.202,0.555
			l1.665-0.617c0.363-0.134,0.593-0.47,0.61-0.832c4.24-1.875,4.675-6.35,4.717-7.059c0.564-0.197,0.975-0.73,0.975-1.365V9.752
			C20.657,9.08,20.196,8.518,19.575,8.353z M11.652,2.761c-3.311,0-6.039,2.629-6.464,6.033C5.075,8.666,4.941,8.561,4.791,8.479
			C4.929,4.422,7.944,1.18,11.652,1.18c3.707,0,6.722,3.242,6.86,7.299c-0.149,0.082-0.283,0.187-0.396,0.313
			C17.691,5.389,14.963,2.761,11.652,2.761z"/>
	</g>
</g>
</svg>
